<?xml version="1.0" encoding="iso-8859-1"?>
<!-- Generator: Adobe Illustrator 18.0.0, SVG Export Plug-In . SVG Version: 6.00 Build 0)  -->
<!DOCTYPE svg PUBLIC "-//W3C//DTD SVG 1.1//EN" "http://www.w3.org/Graphics/SVG/1.1/DTD/svg11.dtd">
<svg xmlns="http://www.w3.org/2000/svg" xmlns:xlink="http://www.w3.org/1999/xlink" version="1.1" id="Capa_1" x="0px" y="0px" viewBox="0 0 59 59" style="enable-background:new 0 0 59 59;" xml:space="preserve" width="512px" height="512px">
<g>
	<path d="M51.179,40.429l-5.596,8.04l-3.949-3.241c-0.426-0.352-1.057-0.288-1.407,0.138c-0.351,0.427-0.289,1.058,0.139,1.407   l4.786,3.929c0.18,0.148,0.404,0.228,0.634,0.228c0.045,0,0.091-0.003,0.137-0.01c0.276-0.038,0.524-0.19,0.684-0.419l6.214-8.929   c0.315-0.453,0.204-1.076-0.25-1.392C52.116,39.861,51.494,39.975,51.179,40.429z" fill="#444444"/>
	<path d="M52,34.479V15V5c0-0.553-0.448-1-1-1h-5V1c0-0.553-0.448-1-1-1h-7c-0.552,0-1,0.447-1,1v3H15V1c0-0.553-0.448-1-1-1H7   C6.448,0,6,0.447,6,1v3H1C0.448,4,0,4.447,0,5v10v41c0,0.553,0.448,1,1,1h38.104c2.002,1.26,4.362,2,6.896,2   c7.168,0,13-5.832,13-13C59,40.997,56.154,36.651,52,34.479z M39,2h5v3v3h-5V5V2z M8,2h5v3v3H8V5V2z M2,6h4v3c0,0.553,0.448,1,1,1   h7c0.552,0,1-0.447,1-1V6h22v3c0,0.553,0.448,1,1,1h7c0.552,0,1-0.447,1-1V6h4v8H2V6z M2,55V16h48v17.636   c-0.196-0.063-0.396-0.114-0.596-0.169c-0.185-0.051-0.37-0.101-0.557-0.144c-0.169-0.038-0.34-0.071-0.511-0.102   c-0.244-0.045-0.489-0.082-0.735-0.113c-0.137-0.017-0.273-0.036-0.411-0.049C46.796,33.024,46.399,33,46,33   c-0.338,0-0.669,0.025-1,0.051V32v-2v-9h-9h-2h-7h-2h-7h-2H7v9v2v7v2v9h9h2h7h2h6.636c0.029,0.088,0.065,0.173,0.095,0.26   c0.084,0.243,0.167,0.487,0.266,0.724c0.055,0.133,0.12,0.26,0.18,0.39c0.115,0.254,0.232,0.507,0.363,0.753   c0.058,0.107,0.123,0.21,0.184,0.316c0.148,0.259,0.298,0.515,0.464,0.763c0.061,0.091,0.128,0.177,0.191,0.267   c0.176,0.25,0.356,0.498,0.551,0.736c0.072,0.088,0.15,0.17,0.224,0.256c0.155,0.18,0.303,0.364,0.468,0.536H2z M40.313,34.328   c-0.108,0.052-0.218,0.101-0.324,0.156c-0.188,0.098-0.37,0.206-0.552,0.313c-0.159,0.093-0.318,0.188-0.473,0.287   c-0.157,0.102-0.31,0.206-0.462,0.314c-0.173,0.122-0.341,0.25-0.508,0.38c-0.134,0.105-0.268,0.209-0.397,0.32   c-0.175,0.148-0.342,0.305-0.509,0.462c-0.115,0.109-0.234,0.214-0.345,0.326c-0.181,0.184-0.352,0.379-0.522,0.574   c-0.072,0.083-0.151,0.159-0.222,0.244V32h7v1.362c-0.017,0.004-0.033,0.01-0.049,0.014C42.029,33.599,41.147,33.92,40.313,34.328z    M33.57,42.199c-0.035,0.115-0.058,0.233-0.09,0.349c-0.08,0.29-0.162,0.58-0.222,0.879c-0.047,0.231-0.073,0.467-0.107,0.701   c-0.027,0.189-0.065,0.375-0.085,0.567C33.023,45.126,33,45.562,33,46c0,0.361,0.02,0.726,0.053,1.092   c0.006,0.067,0.006,0.135,0.013,0.202c0.016,0.162,0.048,0.319,0.07,0.479c0,0,0,0.001,0,0.001   c0.011,0.076,0.015,0.151,0.027,0.226H27v-7h7v0.007c-0.01,0.024-0.016,0.049-0.026,0.073   C33.824,41.445,33.687,41.818,33.57,42.199z M9,41h7v7H9V41z M9,32h7v7H9V32z M43,30h-7v-7h7V30z M34,30h-7v-7h7V30z M34,39h-7v-7   h7V39z M18,32h7v7h-7V32z M25,30h-7v-7h7V30z M16,30H9v-7h7V30z M18,41h7v7h-7V41z M46,57c-2.258,0-4.359-0.686-6.107-1.858   c-0.341-0.228-0.663-0.476-0.972-0.736c-0.108-0.092-0.21-0.19-0.314-0.286c-0.197-0.179-0.388-0.363-0.57-0.554   c-0.117-0.123-0.23-0.248-0.341-0.375c-0.164-0.189-0.318-0.384-0.468-0.583c-0.096-0.127-0.195-0.25-0.286-0.381   c-0.221-0.321-0.429-0.651-0.615-0.993c-0.043-0.08-0.077-0.164-0.118-0.245c-0.146-0.286-0.282-0.576-0.403-0.874   c-0.052-0.13-0.097-0.263-0.145-0.395c-0.094-0.262-0.18-0.528-0.255-0.797c-0.017-0.062-0.032-0.124-0.048-0.186   c-0.113-0.44-0.196-0.877-0.255-1.312c-0.004-0.031-0.01-0.062-0.014-0.094C35.031,46.882,35,46.437,35,46   c0-0.379,0.019-0.755,0.058-1.128c0.003-0.031,0.011-0.061,0.014-0.092c0.038-0.341,0.088-0.681,0.158-1.016   c0.007-0.032,0.018-0.063,0.025-0.095c0.072-0.332,0.157-0.662,0.26-0.988c0.012-0.038,0.029-0.075,0.041-0.113   c0.103-0.312,0.217-0.622,0.349-0.926c0.124-0.286,0.258-0.567,0.405-0.84l0.099-0.171c0.04-0.072,0.087-0.14,0.129-0.211   c0.174-0.293,0.36-0.577,0.557-0.851c0.049-0.068,0.1-0.135,0.151-0.202c0.18-0.238,0.37-0.467,0.568-0.688   c0.069-0.077,0.138-0.155,0.209-0.23c0.196-0.208,0.402-0.405,0.613-0.596c0.075-0.068,0.148-0.138,0.225-0.204   c0.248-0.212,0.505-0.411,0.77-0.6c0.042-0.03,0.082-0.063,0.124-0.093c1.305-0.902,2.804-1.52,4.412-1.79l0.021-0.003   C44.778,35.064,45.381,35,46,35c0.389,0,0.776,0.021,1.16,0.063c0.06,0.006,0.118,0.02,0.178,0.027   c0.328,0.041,0.655,0.09,0.978,0.16c0.04,0.009,0.078,0.021,0.117,0.03c0.344,0.079,0.685,0.171,1.022,0.284   c0.023,0.008,0.045,0.017,0.068,0.025c0.345,0.118,0.685,0.253,1.022,0.406C54.347,37.729,57,41.557,57,46   C57,52.065,52.065,57,46,57z" fill="#444444"/>
</g>
<g>
</g>
<g>
</g>
<g>
</g>
<g>
</g>
<g>
</g>
<g>
</g>
<g>
</g>
<g>
</g>
<g>
</g>
<g>
</g>
<g>
</g>
<g>
</g>
<g>
</g>
<g>
</g>
<g>
</g>
</svg>
